## Receive (52 bytes):
ctxt 1 0
 param 0x005 s32 2
 param 0x001 s32 4
send
auto-truncate 1
## Receive (60 bytes):
event 0x002 1 13
 param 0x000 s32 1
 param 0x001 s32 1
 param 0x002 s32 1
 param 0x003 s32 1
 param 0x004 s32 1
 param 0x005 s32 1
 param 0x006 s32 1
 param 0x007 s32 1
 param 0x008 s32 1
 param 0x009 s32 1
 param 0x00a s32 1
 param 0x00b s32 1
 param 0x00c s32 1
 param 0x00d s32 1
 param 0x00e s32 1
 param 0x00f s32 1
 param 0x010 s32 1
 param 0x011 s32 1
 param 0x012 s32 1
 param 0x013 s32 1
 param 0x014 s32 1
 param 0x015 s32 1
 param 0x016 s32 1
 param 0x017 s32 1
 param 0x018 s32 1
 param 0x019 s32 1
 param 0x01a s32 1
 param 0x01b s32 1
 param 0x01c s32 1
 param 0x01d s32 1
 param 0x01e s32 1
 param 0x01f s32 1
event 0x003 1 13
 param 0x000 s32 2
 param 0x001 s32 2
 param 0x002 s32 2
 param 0x003 s32 2
 param 0x004 s32 2
 param 0x005 s32 2
 param 0x006 s32 2
 param 0x007 s32 2
 param 0x008 s32 2
 param 0x009 s32 2
 param 0x00a s32 2
 param 0x00b s32 2
 param 0x00c s32 2
 param 0x00d s32 2
 param 0x00e s32 2
 param 0x00f s32 2
 param 0x010 s32 2
 param 0x011 s32 2
 param 0x012 s32 2
 param 0x013 s32 2
 param 0x014 s32 2
 param 0x015 s32 2
 param 0x016 s32 2
 param 0x017 s32 2
 param 0x018 s32 2
 param 0x019 s32 2
 param 0x01a s32 2
 param 0x01b s32 2
 param 0x01c s32 2
 param 0x01d s32 2
 param 0x01e s32 2
 param 0x01f s32 2
event 0x004 1 13
 param 0x000 s32 3
 param 0x001 s32 3
 param 0x002 s32 3
 param 0x003 s32 3
 param 0x004 s32 3
 param 0x005 s32 3
 param 0x006 s32 3
 param 0x007 s32 3
 param 0x008 s32 3
 param 0x009 s32 3
 param 0x00a s32 3
 param 0x00b s32 3
 param 0x00c s32 3
 param 0x00d s32 3
 param 0x00e s32 3
 param 0x00f s32 3
 param 0x010 s32 3
 param 0x011 s32 3
 param 0x012 s32 3
 param 0x013 s32 3
 param 0x014 s32 3
 param 0x015 s32 3
 param 0x016 s32 3
 param 0x017 s32 3
 param 0x018 s32 3
 param 0x019 s32 3
 param 0x01a s32 3
 param 0x01b s32 3
 param 0x01c s32 3
 param 0x01d s32 3
 param 0x01e s32 3
 param 0x01f s32 3
event 0x005 1 13
 param 0x000 s32 4
 param 0x001 s32 4
 param 0x002 s32 4
 param 0x003 s32 4
 param 0x004 s32 4
 param 0x005 s32 4
 param 0x006 s32 4
 param 0x007 s32 4
 param 0x008 s32 4
 param 0x009 s32 4
 param 0x00a s32 4
 param 0x00b s32 4
 param 0x00c s32 4
 param 0x00d s32 4
 param 0x00e s32 4
 param 0x00f s32 4
 param 0x010 s32 4
 param 0x011 s32 4
 param 0x012 s32 4
 param 0x013 s32 4
 param 0x014 s32 4
 param 0x015 s32 4
 param 0x016 s32 4
 param 0x017 s32 4
 param 0x018 s32 4
 param 0x019 s32 4
 param 0x01a s32 4
 param 0x01b s32 4
 param 0x01c s32 4
 param 0x01d s32 4
 param 0x01e s32 4
 param 0x01f s32 4
event 0x006 1 13
 param 0x000 s32 5
event 0x007 1 13
 param 0x000 s32 6
 param 0x001 s32 6
 param 0x002 s32 6
 param 0x003 s32 6
 param 0x004 s32 6
 param 0x005 s32 6
 param 0x006 s32 6
 param 0x007 s32 6
 param 0x008 s32 6
 param 0x009 s32 6
 param 0x00a s32 6
 param 0x00b s32 6
 param 0x00c s32 6
 param 0x00d s32 6
 param 0x00e s32 6
 param 0x00f s32 6
 param 0x010 s32 6
 param 0x011 s32 6
 param 0x012 s32 6
 param 0x013 s32 6
 param 0x014 s32 6
 param 0x015 s32 6
 param 0x016 s32 6
 param 0x017 s32 6
 param 0x018 s32 6
 param 0x019 s32 6
 param 0x01a s32 6
 param 0x01b s32 6
 param 0x01c s32 6
 param 0x01d s32 6
 param 0x01e s32 6
 param 0x01f s32 6
event 0x008 1 13
 param 0x000 s32 7
 param 0x001 s32 7
 param 0x002 s32 7
 param 0x003 s32 7
 param 0x004 s32 7
 param 0x005 s32 7
 param 0x006 s32 7
 param 0x007 s32 7
 param 0x008 s32 7
 param 0x009 s32 7
# Just at the limit

event 0x009 1 13
send
